<svg xmlns="http://www.w3.org/2000/svg" xmlns:xlink="http://www.w3.org/1999/xlink" width="65" height="112" viewBox="0 0 65 112">
  <defs>
    <filter id="Polygon_5" x="0" y="0" width="65" height="112" filterUnits="userSpaceOnUse">
      <feOffset dy="3" input="SourceAlpha"/>
      <feGaussianBlur stdDeviation="3" result="blur"/>
      <feFlood flood-opacity="0.161"/>
      <feComposite operator="in" in2="blur"/>
      <feComposite in="SourceGraphic"/>
    </filter>
  </defs>
  <g id="Component_2_1" data-name="Component 2 – 1" transform="translate(9 6)">
    <g transform="matrix(1, 0, 0, 1, -9, -6)" filter="url(#Polygon_5)">
      <path id="Polygon_5-2" data-name="Polygon 5" d="M47,0,94,47H0Z" transform="translate(56 6) rotate(90)" fill="#fff"/>
    </g>
  </g>
</svg>
